…
```r
library(dplyr)
library(ggplot2)
library(caret)
library(GGally)
library(magrittr)

train.df <- tbl_df(read.csv('../pml-training.csv',stringsAsFactors = F,na.strings = c("","NA"))) %>% select(-X)
test.df <- tbl_df(read.csv('../pml-testing.csv',stringsAsFactors = F,na.strings = c("","NA"))) %>% select(-c(problem_id,X)) %>% mutate(classe='DUM')
print(train.df)
```

```
## # A tibble: 19,622 x 159
##    user_name raw_timestamp_part_1 raw_timestamp_part_2   cvtd_timestamp
##        <chr>                <int>                <int>            <chr>
##  1  carlitos           1323084231               788290 05/12/2011 11:23
##  2  carlitos           1323084231               808298 05/12/2011 11:23
##  3  carlitos           1323084231               820366 05/12/2011 11:23
##  4  carlitos           1323084232               120339 05/12/2011 11:23
##  5  carlitos           1323084232               196328 05/12/2011 11:23
##  6  carlitos           1323084232               304277 05/12/2011 11:23
##  7  carlitos           1323084232               368296 05/12/2011 11:23
##  8  carlitos           1323084232               440390 05/12/2011 11:23
##  9  carlitos           1323084232               484323 05/12/2011 11:23
## 10  carlitos           1323084232               484434 05/12/2011 11:23
## # ... with 19,612 more rows, and 155 more variables: new_window <chr>,
## #   num_window <int>, roll_belt <dbl>, pitch_belt <dbl>, yaw_belt <dbl>,
## #   total_accel_belt <int>, kurtosis_roll_belt <chr>,
## #   kurtosis_picth_belt <chr>, kurtosis_yaw_belt <chr>,
## #   skewness_roll_belt <chr>, skewness_roll_belt.1 <chr>,
## #   skewness_yaw_belt <chr>, max_roll_belt <dbl>, max_picth_belt <int>,
## #   max_yaw_belt <chr>, min_roll_belt <dbl>, min_pitch_belt <int>,
## #   min_yaw_belt <chr>, amplitude_roll_belt <dbl>,
## #   amplitude_pitch_belt <int>, amplitude_yaw_belt <chr>,
…
```r
test.df.nz <- tbl_df(test.df[,-nz.ind]) %>% select(-starts_with("raw_timestamp"),-cvtd_timestamp,-num_window) %>% select(one_of(keepCol))
```

```
## Warning: Unknown variables: `raw_timestamp_part_1`, `raw_timestamp_part_2`,
## `cvtd_timestamp`, `new_window`, `num_window`
```

```r
print(train.df.nz)
```

```
## # A tibble: 19,622 x 54
##    user_name roll_belt pitch_belt yaw_belt total_accel_belt gyros_belt_x
##        <chr>     <dbl>      <dbl>    <dbl>            <int>        <dbl>
##  1  carlitos      1.41       8.07    -94.4                3         0.00
##  2  carlitos      1.41       8.07    -94.4                3         0.02
##  3  carlitos      1.42       8.07    -94.4                3         0.00
##  4  carlitos      1.48       8.05    -94.4                3         0.02
##  5  carlitos      1.48       8.07    -94.4                3         0.02
##  6  carlitos      1.45       8.06    -94.4                3         0.02
##  7  carlitos      1.42       8.09    -94.4                3         0.02
##  8  carlitos      1.42       8.13    -94.4                3         0.02
##  9  carlitos      1.43       8.16    -94.4                3         0.02
## 10  carlitos      1.45       8.17    -94.4                3         0.03
## # ... with 19,612 more rows, and 48 more variables: gyros_belt_y <dbl>,
## #   gyros_belt_z <dbl>, accel_belt_x <int>, accel_belt_y <int>,
## #   accel_belt_z <int>, magnet_belt_x <int>, magnet_belt_y <int>,
## #   magnet_belt_z <int>, roll_arm <dbl>, pitch_arm <dbl>, yaw_arm <dbl>,
## #   total_accel_arm <int>, gyros_arm_x <dbl>, gyros_arm_y <dbl>,
## #   gyros_arm_z <dbl>, accel_arm_x <int>, accel_arm_y <int>,
## #   accel_arm_z <int>, magnet_arm_x <int>, magnet_arm_y <int>,
## #   magnet_arm_z <int>, roll_dumbbell <dbl>, pitch_dumbbell <dbl>,
## #   yaw_dumbbell <dbl>, total_accel_dumbbell <int>,
…
